…
``` r
# load functions for formatting tables
library(knitr)      

# get data from rcis package
# if you need to install it see homework instructions on the website
library(rcis)

# load the data
data("mass_shootings")
mass_shootings
```

    ## # A tibble: 125 x 14
    ##    case   year month   day locat~1 summary fatal~2 injured total~3 locat~4 male 
    ##    <chr> <dbl> <chr> <int> <chr>   <chr>     <dbl>   <dbl>   <dbl> <chr>   <lgl>
    ##  1 Oxfo~  2021 Nov      30 Oxford~ "Ethan~       4       7      11 School  TRUE 
    ##  2 San ~  2021 May      26 San Jo~ "Samue~       9       0       9 Workpl~ TRUE 
    ##  3 FedE~  2021 Apr      15 Indian~ "Brand~       8       7      15 Workpl~ TRUE 
    ##  4 Oran~  2021 Mar      31 Orange~ "Amina~       4       1       5 Workpl~ TRUE 
    ##  5 Boul~  2021 Mar      22 Boulde~ "Ahmad~      10       0      10 Workpl~ TRUE 
    ##  6 Atla~  2021 Mar      16 Atlant~ "Rober~       8       1       9 Workpl~ TRUE 
    ##  7 Spri~  2020 Mar      16 Spring~ "Joaqu~       4       0       4 Workpl~ TRUE 
    ##  8 Mols~  2020 Feb      26 Milwau~ "Antho~       5       0       5 Workpl~ TRUE 
    ##  9 Jers~  2019 Dec      10 Jersey~ "David~       4       3       7 Other   TRUE 
    ## 10 Pens~  2019 Dec       6 Pensac~ "Ahmed~       3       8      11 Milita~ TRUE 
    ## # ... with 115 more rows, 3 more variables: age_of_shooter <dbl>, race <chr>,
    ## #   prior_mental_illness <chr>, and abbreviated variable names 1: location,
    ## #   2: fatalities, 3: total_victims, 4: location_type
…
