…
    # check the data

    data(case)

    ## Warning in data(case): data set 'case' not found

    data(vote)

    ## Warning in data(vote): data set 'vote' not found

    case

    ## # A tibble: 28,981 × 52
    ##    caseId docketId caseIssuesId dateDecision decisionType usCite sctCite ledCite
    ##    <chr>  <chr>    <chr>        <chr>               <dbl> <chr>  <chr>   <chr>  
    ##  1 1791-… 1791-00… 1791-001-01… 8/3/1791                6 2 U.S… <NA>    1 L. E…
    ##  2 1791-… 1791-00… 1791-002-01… 8/3/1791                2 2 U.S… <NA>    1 L. E…
    ##  3 1792-… 1792-00… 1792-001-01… 2/14/1792               2 2 U.S… <NA>    1 L. E…
    ##  4 1792-… 1792-00… 1792-002-01… 8/7/1792                2 2 U.S… <NA>    1 L. E…
    ##  5 1792-… 1792-00… 1792-003-01… 8/11/1792               8 2 U.S… <NA>    1 L. E…
    ##  6 1792-… 1792-00… 1792-004-01… 8/11/1792               6 2 U.S… <NA>    1 L. E…
    ##  7 1793-… 1793-00… 1793-001-01… 2/19/1793               8 2 U.S… <NA>    1 L. E…
    ##  8 1793-… 1793-00… 1793-002-01… 2/20/1793               2 2 U.S… <NA>    1 L. E…
    ##  9 1793-… 1793-00… 1793-003-01… 2/20/1793               8 2 U.S… <NA>    1 L. E…
    ## 10 1794-… 1794-00… 1794-001-01… 2/7/1794               NA 3 U.S… <NA>    1 L. E…
    ## # ℹ 28,971 more rows
    ## # ℹ 44 more variables: lexisCite <chr>, term <dbl>, naturalCourt <dbl>,
    ## #   chief <chr>, docket <chr>, caseName <chr>, dateArgument <chr>,
    ## #   dateRearg <chr>, petitioner <dbl>, petitionerState <dbl>, respondent <dbl>,
    ## #   respondentState <dbl>, jurisdiction <dbl>, adminAction <dbl>,
    ## #   adminActionState <dbl>, threeJudgeFdc <dbl>, caseOrigin <dbl>,
    ## #   caseOriginState <dbl>, caseSource <dbl>, caseSourceState <dbl>, …

    vote

    ## # A tibble: 253,643 × 13
    ##    caseId   docketId caseIssuesId voteId  term justice justiceName  vote opinion
    ##    <chr>    <chr>    <chr>        <chr>  <dbl>   <dbl> <chr>       <dbl>   <dbl>
    ##  1 1791-001 1791-00… 1791-001-01… 1791-…  1791       1 JJay            1       1
    ##  2 1791-001 1791-00… 1791-001-01… 1791-…  1791       3 WCushing        1       1
    ##  3 1791-001 1791-00… 1791-001-01… 1791-…  1791       4 JWilson         1       1
    ##  4 1791-001 1791-00… 1791-001-01… 1791-…  1791       5 JBlair          1       1
    ##  5 1791-001 1791-00… 1791-001-01… 1791-…  1791       6 JIredell        1       1
    ##  6 1791-002 1791-00… 1791-002-01… 1791-…  1791       1 JJay            1       1
    ##  7 1791-002 1791-00… 1791-002-01… 1791-…  1791       3 WCushing        1       1
    ##  8 1791-002 1791-00… 1791-002-01… 1791-…  1791       4 JWilson         1       1
    ##  9 1791-002 1791-00… 1791-002-01… 1791-…  1791       5 JBlair          1       1
    ## 10 1791-002 1791-00… 1791-002-01… 1791-…  1791       6 JIredell        1       1
    ## # ℹ 253,633 more rows
    ## # ℹ 4 more variables: direction <dbl>, majority <dbl>, firstAgreement <dbl>,
    ## #   secondAgreement <dbl>
…
    ## # A tibble: 3 × 2
    ##   direction  count
    ##       <dbl>  <int>
    ## 1         0 100577
    ## 2         1 110648
    ## 3        NA  42418

    #justiceName: variables to a factor in justice chronological order

    justiceName_original <- vote$justiceName
    print(as_tibble(justiceName_original))

    ## # A tibble: 253,643 × 1
    ##    value   
    ##    <chr>   
    ##  1 JJay    
    ##  2 WCushing
    ##  3 JWilson 
    ##  4 JBlair  
    ##  5 JIredell
    ##  6 JJay    
    ##  7 WCushing
    ##  8 JWilson 
    ##  9 JBlair  
    ## 10 JIredell
    ## # ℹ 253,633 more rows
…
